Data-Wrangling
…
## # A tibble: 1 x 13
##   name  height  mass hair_color skin_color eye_color birth_year gender
##   <chr>  <int> <dbl> <chr>      <chr>      <chr>          <dbl> <chr> 
## 1 Luke~    172    77 blond      fair       blue              19 male  
## # ... with 5 more variables: homeworld <chr>, species <chr>, films <list>,
## #   vehicles <list>, starships <list>

library(dplyr)

df <- starwars

df[ ,4]

## # A tibble: 87 x 1
##    hair_color   
##    <chr>        
##  1 blond        
##  2 <NA>         
##  3 <NA>         
##  4 none         
##  5 brown        
##  6 brown, grey  
##  7 brown        
##  8 <NA>         
##  9 black        
## 10 auburn, white
## # ... with 77 more rows

library(dplyr)

df <- starwars

df[1:4]

## # A tibble: 87 x 4
##    name               height  mass hair_color   
##    <chr>               <int> <dbl> <chr>        
##  1 Luke Skywalker        172    77 blond        
##  2 C-3PO                 167    75 <NA>         
##  3 R2-D2                  96    32 <NA>         
##  4 Darth Vader           202   136 none         
##  5 Leia Organa           150    49 brown        
##  6 Owen Lars             178   120 brown, grey  
##  7 Beru Whitesun lars    165    75 brown        
##  8 R5-D4                  97    32 <NA>         
##  9 Biggs Darklighter     183    84 black        
## 10 Obi-Wan Kenobi        182    77 auburn, white
## # ... with 77 more rows
…
